65eaf0c1-2748-458f-8512-44a1c0b9d769

65eaf63e-5b40-4235-b075-4c99c0b9d769

65eb3efe-be6c-4fc7-9991-4157c0b9d769

65ec6377-e4d4-48ee-b0fb-43a6c0b9d769




04219607000118

01468885000110

37832049000110