cliente_codigo,cliente_nome                                 ,cliente_cnpj  ,natueza_codigo,natureza_descricao                 ,nf_numero,data_emissao                  ,valor_nf    
--------------,---------------------------------------------,--------------,--------------,-----------------------------------,---------,------------------------------,------------

(0 rows affected)
