10550719000150 - login rafael
rafael@amexcom.com.br
pontos2018


15330584000130 - login tcharles
comercial.pecas@fipal.com.br
pontos2018


comercial.pecas@fipal.com.br
tcharles
pontos2018





28990069000129
12346